[
    {
        "empno": "270",
        "empnom": "PEREZ"
    },
    {
        "empno": "250",
        "empnom": "DATTA"
    },
    {
        "empno": "240",
        "empnom": "MANTE"
    },
    {
        "empno": "230",
        "empnom": "DANTE"
    },
    {
        "empno": "070",
        "empnom": "DANOIS"
    }
]