
        <<aa



        aa>>

        <<aa


        aa>>

        <<aa
        Rousseau
        aa>>

        <<aa


        aa>>

        <<aa
        Anne
        aa>>

        <<aa


        aa>>

        <<aa


        aa>>

        <<aa
        Rue des Choux
        aa>>

        <<aa


        aa>>

        <<aa
        15
        aa>>

        <<aa


        aa>>

        <<aa
        1080
        aa>>

        <<aa


        aa>>

        <<aa
        Moolenbeek
        aa>>

        <<aa


        aa>>

        <<aa
        Belgique
        aa>>

        <<aa


        aa>>

        <<aa


        aa>>

        <<aa



        aa>>

        <<aa


        aa>>

        <<aa
        Servais
        aa>>

        <<aa


        aa>>

        <<aa
        Frédéric
        aa>>

        <<aa


        aa>>

        <<aa


        aa>>

        <<aa
        Rue des Pommes
        aa>>

        <<aa


        aa>>

        <<aa
        74
        aa>>

        <<aa


        aa>>

        <<aa
        1080
        aa>>

        <<aa


        aa>>

        <<aa
        Moolenbeek
        aa>>

        <<aa


        aa>>

        <<aa
        Belgique
        aa>>

        <<aa


        aa>>

        <<aa


        aa>>

        <<aa



        aa>>

        <<aa


        aa>>

        <<aa
        Bettens
        aa>>

        <<aa


        aa>>

        <<aa
        Pierre
        aa>>

        <<aa


        aa>>

        <<aa


        aa>>

        <<aa
        Rue des Allumettes
        aa>>

        <<aa


        aa>>

        <<aa
        7b
        aa>>

        <<aa


        aa>>

        <<aa
        7420
        aa>>

        <<aa


        aa>>

        <<aa
        Autreppe
        aa>>

        <<aa


        aa>>

        <<aa
        Belgique
        aa>>

        <<aa


        aa>>

        <<aa


        aa>>

        <<aa



        aa>>
