{ "classe": {
    "cours": "Développement Internet",
    "etudiants": [
        { "no": 23456, "nom": "Dupont", "prenom": "Marc" },
        { "no": 24235, "nom": "Durand", "prenom": "Hélène" }
    ]
}
}
